Chapter 8 - SNASS
…
#putput already has a lot of information on Jochem 

# NEXT: find all papers Jochem wrote 

oa_fetch (entity = "works", author.id = 'https://openalex.org/A5087380803')

## # A tibble: 85 × 38
##    id    title display_name author ab    publication_date so    so_id host_organization issn_l url  
##    <chr> <chr> <chr>        <list> <chr> <chr>            <chr> <chr> <chr>             <chr>  <chr>
##  1 http… Ethn… Ethnic Dive… <df>   Rece… 2014-06-27       Annu… http… Annual Reviews    0360-… http…
##  2 http… Anti… Anti-Muslim… <df>   Jour… 2010-07-25       Euro… http… Oxford Universit… 0266-… http…
##  3 http… The … The impact … <df>   Up t… 2009-07-01       Acta… http… Palgrave Macmill… 0001-… http…
##  4 http… Who … Who is bull… <df>   This… 2013-01-01       Soci… http… Elsevier BV       0378-… http…
##  5 http… Neig… Neighbourho… <df>   Supp… 2016-11-09       Euro… http… Oxford Universit… 0266-… http…
##  6 http… A Ma… A Matter of… <df>   Abst… 2024-04-12       Quan… http… The MIT Press     2641-… http…
##  7 http… Ethn… Ethnic Comp… <df>   Jour… 2007-11-15       Euro… http… Oxford Universit… 0266-… http…
##  8 http… Educ… Education a… <df>   Abst… 2012-04-19       Jour… http… Taylor & Francis  1369-… http…
##  9 http… Co-o… Co-occurren… <df>   Alth… 2019-09-23       Chil… http… Elsevier BV       0145-… http…
## 10 http… The … The Impact … <df>   This… 2016-01-20       Jour… http… Wiley             1050-… http…
## # ℹ 75 more rows
## # ℹ 27 more variables: pdf_url <chr>, license <chr>, version <chr>, first_page <chr>,
## #   last_page <chr>, volume <chr>, issue <chr>, is_oa <lgl>, is_oa_anywhere <lgl>, oa_status <chr>,
## #   oa_url <chr>, any_repository_has_fulltext <lgl>, language <chr>, grants <list>,
## #   cited_by_count <int>, counts_by_year <list>, publication_year <int>, cited_by_api_url <chr>,
## #   ids <list>, doi <chr>, type <chr>, referenced_works <list>, related_works <list>,
## #   is_paratext <lgl>, is_retracted <lgl>, concepts <list>, topics <list>
…
